<?xml version="1.0" encoding="utf-8"?>
<!-- Generator: Adobe Illustrator 23.0.4, SVG Export Plug-In . SVG Version: 6.00 Build 0)  -->
<svg version="1.1" id="Layer_1" xmlns="http://www.w3.org/2000/svg" xmlns:xlink="http://www.w3.org/1999/xlink" x="0px" y="0px"
	 viewBox="0 0 250 244.06" style="enable-background:new 0 0 250 244.06;" xml:space="preserve">
<style type="text/css">
	.st0{fill:#FFFFFF;}
	.st1{fill:#4F4EFF;}
</style>
<g>
	<g>
		<path class="st0" d="M159.59,80.98c14.5,9.34,24.1,25.63,24.1,44.16c0,28.99-23.51,52.5-52.5,52.5s-52.5-23.51-52.5-52.5
			s23.51-52.5,52.5-52.5C141.66,72.64,151.41,75.7,159.59,80.98"/>
		<path class="st1" d="M131.19,180.14c-30.33,0-55-24.67-55-55s24.67-55,55-55c10.6,0,20.89,3.02,29.75,8.74l0,0
			c15.81,10.19,25.25,27.48,25.25,46.26C186.19,155.47,161.52,180.14,131.19,180.14z M131.19,75.14c-27.57,0-50,22.43-50,50
			s22.43,50,50,50s50-22.43,50-50c0-17.08-8.58-32.8-22.95-42.06l0,0C150.18,77.89,140.83,75.14,131.19,75.14z"/>
	</g>
	<path class="st1" d="M199.81,81.38c-0.8,0-1.59-0.39-2.07-1.1c-14.97-22.16-39.84-35.38-66.55-35.38
		c-23.5,0-45.75,10.26-61.03,28.14c-0.9,1.05-2.48,1.17-3.52,0.28c-1.05-0.9-1.17-2.48-0.28-3.52c16.23-19,39.86-29.89,64.83-29.89
		c28.36,0,54.79,14.05,70.69,37.58c0.77,1.14,0.47,2.7-0.67,3.47C200.78,81.24,200.3,81.37,199.81,81.38z"/>
	<path class="st1" d="M60.43,170.55c-0.84,0-1.67-0.43-2.14-1.2c-8.08-13.29-12.34-28.58-12.34-44.21c0-12.24,2.54-24.05,7.54-35.11
		c0.57-1.26,2.05-1.82,3.31-1.25c1.26,0.57,1.82,2.05,1.25,3.31c-4.71,10.41-7.1,21.53-7.1,33.04c0,14.71,4.02,29.1,11.62,41.61
		c0.72,1.18,0.34,2.72-0.84,3.43C61.32,170.43,60.87,170.55,60.43,170.55z"/>
	<path class="st1" d="M131.19,210.39c-20.18,0-39.75-7.18-55.12-20.21c-1.05-0.89-1.18-2.47-0.29-3.52
		c0.89-1.05,2.47-1.18,3.52-0.29c14.46,12.27,32.89,19.02,51.88,19.02c44.25,0,80.25-36,80.25-80.25c0-7.29-0.98-14.51-2.9-21.46
		c-0.37-1.33,0.41-2.71,1.74-3.08c1.33-0.37,2.71,0.41,3.08,1.74c2.04,7.39,3.08,15.05,3.08,22.79
		C216.44,172.15,178.2,210.39,131.19,210.39z"/>
	<path class="st1" d="M192.32,215.52c-0.79,0-1.57-0.37-2.05-1.07c-0.79-1.13-0.51-2.69,0.62-3.48c9.25-6.45,17.36-14.3,24.12-23.34
		c0.83-1.11,2.39-1.33,3.5-0.51c1.11,0.83,1.33,2.39,0.51,3.5c-7.07,9.47-15.57,17.69-25.26,24.45
		C193.31,215.38,192.82,215.52,192.32,215.52z"/>
	<path class="st1" d="M226.24,176.91c-0.39,0-0.78-0.09-1.15-0.28c-1.23-0.64-1.7-2.15-1.07-3.37
		c7.66-14.75,11.71-31.39,11.71-48.12c0-57.64-46.9-104.54-104.54-104.54c-7.14,0-14.27,0.72-21.21,2.15
		c-1.35,0.27-2.67-0.59-2.95-1.94c-0.28-1.35,0.59-2.67,1.94-2.95c7.26-1.5,14.74-2.25,22.21-2.25
		c60.4,0,109.54,49.14,109.54,109.54c0,17.53-4.24,34.97-12.27,50.42C228.02,176.42,227.15,176.91,226.24,176.91z"/>
	<path class="st1" d="M26.29,106.27c-0.16,0-0.33-0.02-0.5-0.05c-1.35-0.27-2.23-1.59-1.95-2.95C30.47,70.5,52.37,42,82.41,27.04
		c1.24-0.61,2.74-0.11,3.35,1.12c0.62,1.24,0.11,2.74-1.12,3.35c-28.67,14.28-49.57,41.48-55.9,72.76
		C28.5,105.46,27.45,106.27,26.29,106.27z"/>
	<path class="st1" d="M131.19,234.68c-57.72,0-105.74-45.08-109.33-102.62c-0.09-1.38,0.96-2.56,2.34-2.65
		c1.38-0.08,2.56,0.96,2.65,2.34c3.42,54.92,49.25,97.93,104.34,97.93c12.36,0,24.45-2.13,35.95-6.34c1.29-0.47,2.73,0.19,3.21,1.49
		c0.47,1.3-0.19,2.73-1.49,3.21C156.81,232.45,144.14,234.68,131.19,234.68z"/>
	<path class="st1" d="M80.76,113.04c-0.67,0-1.31-0.27-1.79-0.75c-0.52-0.53-0.78-1.27-0.7-2.01c0.59-5.68,5.37-12.96,14.22-21.63
		c6.38-6.26,12.5-10.91,12.76-11.11c1.09-0.83,2.65-0.62,3.49,0.46c5.68,7.34,7.29,13.95,4.79,19.64
		c-5.73,13.02-31.46,15.29-32.56,15.38C80.9,113.04,80.83,113.04,80.76,113.04z M106.26,83.11c-6.69,5.37-18.77,16.28-22.15,24.52
		c8.03-1.2,21.63-4.68,24.84-11.99C110.46,92.22,109.55,88.01,106.26,83.11z"/>
	<path class="st1" d="M129.26,137.54c-5.24,0-9.5-4.26-9.5-9.5s4.26-9.5,9.5-9.5s9.5,4.26,9.5,9.5S134.5,137.54,129.26,137.54z
		 M129.26,123.54c-2.48,0-4.5,2.02-4.5,4.5s2.02,4.5,4.5,4.5s4.5-2.02,4.5-4.5S131.75,123.54,129.26,123.54z"/>
	<circle class="st1" cx="144.76" cy="137.54" r="2.5"/>
	<circle class="st1" cx="149.76" cy="98.54" r="2.5"/>
	<circle class="st1" cx="135.76" cy="145.54" r="2.5"/>
	<path class="st1" d="M204.76,106.54c-8.27,0-15-6.73-15-15s6.73-15,15-15c2.85,0,5.63,0.8,8.02,2.32c1.17,0.74,1.51,2.28,0.77,3.45
		s-2.29,1.51-3.45,0.77c-1.6-1.01-3.45-1.55-5.35-1.55c-5.51,0-10,4.49-10,10s4.49,10,10,10s10-4.49,10-10
		c0-1.72-0.44-3.41-1.28-4.89c-0.68-1.2-0.25-2.73,0.96-3.4c1.2-0.68,2.73-0.25,3.4,0.95c1.25,2.23,1.92,4.77,1.92,7.34
		C219.76,99.81,213.04,106.54,204.76,106.54z"/>
	<path class="st1" d="M68.26,194.04c-8.27,0-15-6.73-15-15s6.73-15,15-15s15,6.73,15,15S76.53,194.04,68.26,194.04z M68.26,169.04
		c-5.51,0-10,4.49-10,10s4.49,10,10,10s10-4.49,10-10S73.78,169.04,68.26,169.04z"/>
	<path class="st1" d="M179.37,235.01c-0.06,0-0.12,0-0.18-0.01c-7.81-0.56-13.92-7.13-13.92-14.96c0-8.27,6.73-15,15-15
		s15,6.73,15,15c0,3.01-0.89,5.91-2.56,8.39c-0.77,1.14-2.33,1.45-3.47,0.67c-1.14-0.77-1.45-2.33-0.67-3.47
		c1.12-1.65,1.71-3.59,1.71-5.59c0-5.51-4.49-10-10-10s-10,4.49-10,10c0,5.22,4.08,9.61,9.28,9.97c1.38,0.1,2.41,1.29,2.32,2.67
		C181.77,234.01,180.67,235.01,179.37,235.01z"/>
	<path class="st1" d="M96.26,39.04c-8.27,0-15-6.73-15-15s6.73-15,15-15s15,6.73,15,15S104.53,39.04,96.26,39.04z M96.26,14.04
		c-5.51,0-10,4.49-10,10s4.49,10,10,10s10-4.49,10-10S101.78,14.04,96.26,14.04z"/>
	<path class="st1" d="M24.26,133.04c-8.27,0-15-6.73-15-15c0-8.27,6.73-15,15-15s15,6.73,15,15
		C39.26,126.32,32.53,133.04,24.26,133.04z M24.26,108.04c-5.51,0-10,4.49-10,10c0,5.51,4.49,10,10,10s10-4.49,10-10
		C34.26,112.53,29.78,108.04,24.26,108.04z"/>
</g>
</svg>
